monitoring/tbuart.vcd
$date
  Thu Dec 13 10:10:36 2018
$end
$version
  GHDL v0
$end
$timescale
  1 fs
$end
$var reg 1 ! r_clock $end
$var reg 1 " r_rst $end
$var reg 1 # r_tx_dv $end
$var reg 8 $ r_tx_byte[7:0] $end
$var reg 1 % w_tx_serial $end
$var reg 1 & w_tx_done $end
$var reg 1 ' w_rx_dv $end
$var reg 8 ( w_rx_byte[7:0] $end
$var reg 1 ) r_rx_serial $end
$scope module uart_tx_inst $end
$var reg 1 * i_clk $end
$var reg 1 + i_tx_dv $end
$var reg 8 , i_tx_byte[7:0] $end
$var reg 1 - o_tx_active $end
$var reg 1 . o_tx_serial $end
$var reg 1 / o_tx_done $end
$comment r_sm_main is not handled $end
$var integer 32 0 r_clk_count $end
$var integer 32 1 r_bit_index $end
$var reg 8 2 r_tx_data[7:0] $end
$var reg 1 3 r_tx_done $end
$upscope $end
$scope module uart_rx_inst $end
$var reg 1 4 i_clk $end
$var reg 1 5 reset $end
$var reg 1 6 i_rx_serial $end
$var reg 1 7 o_rx_dv $end
$var reg 8 8 o_rx_byte[7:0] $end
$comment r_sm_main is not handled $end
$var reg 1 9 r_rx_data_r $end
$var reg 1 : r_rx_data $end
$var integer 32 ; r_clk_count $end
$var integer 32 < r_bit_index $end
$var reg 8 = r_rx_byte[7:0] $end
$var reg 1 > r_rx_dv $end
$upscope $end
$enddefinitions $end
#0
0!
1"
0#
b00000000 $
U%
0&
0'
b00000000 (
1)
0*
0+
b00000000 ,
U-
U.
0/
b0 0
b0 1
b00000000 2
03
04
15
16
07
b00000000 8
09
0:
b0 ;
b0 <
b00000000 =
0>
#2000000
0"
05
#5000000
1!
1%
1*
0-
1.
14
19
#10000000
0!
0*
04
#15000000
1!
1#
b10101011 $
1*
1+
b10101011 ,
14
1:
b1 ;
#20000000
0!
0*
04
#25000000
1!
0#
1*
0+
b10101011 2
14
b10 ;
#30000000
0!
0*
04
#35000000
1!
0%
1*
1-
0.
b1 0
14
b11 ;
#40000000
0!
0*
04
#45000000
1!
1*
b10 0
14
b100 ;
#50000000
0!
0*
04
#55000000
1!
1*
b11 0
14
b101 ;
#60000000
0!
0*
04
#65000000
1!
1*
b100 0
14
b110 ;
#70000000
0!
0*
04
#75000000
1!
1*
b101 0
14
b111 ;
#80000000
0!
0*
04
#85000000
1!
1*
b110 0
14
b1000 ;
#90000000
0!
0*
04
#95000000
1!
1*
b111 0
14
b1001 ;
#100000000
0!
0*
04
#105000000
1!
1*
b1000 0
14
b1010 ;
#110000000
0!
0*
04
#115000000
1!
1*
b1001 0
14
b1011 ;
#120000000
0!
0*
04
#125000000
1!
1*
b1010 0
14
b1100 ;
#130000000
0!
0*
04
#135000000
1!
1*
b1011 0
14
b1101 ;
#140000000
0!
0*
04
#145000000
1!
1*
b1100 0
14
b1110 ;
#150000000
0!
0*
04
#155000000
1!
1*
b1101 0
14
b1111 ;
#160000000
0!
0*
04
#165000000
1!
1*
b1110 0
14
b10000 ;
#170000000
0!
0*
04
#175000000
1!
1*
b1111 0
14
b10001 ;
#180000000
0!
0*
04
#185000000
1!
1*
b10000 0
14
b10010 ;
#190000000
0!
0*
04
#195000000
1!
1*
b10001 0
14
b10011 ;
#200000000
0!
0*
04
#205000000
1!
1*
b10010 0
14
b10100 ;
#210000000
0!
0*
04
#215000000
1!
1*
b10011 0
14
b10101 ;
#220000000
0!
0*
04
#225000000
1!
1*
b10100 0
14
b10110 ;
#230000000
0!
0*
04
#235000000
1!
1*
b10101 0
14
b10111 ;
#240000000
0!
0*
04
#245000000
1!
1*
b10110 0
14
b11000 ;
#250000000
0!
0*
04
#255000000
1!
1*
b10111 0
14
b11001 ;
#260000000
0!
0*
04
#265000000
1!
1*
b11000 0
14
b11010 ;
#270000000
0!
0*
04
#275000000
1!
1*
b11001 0
14
b11011 ;
#280000000
0!
0*
04
#285000000
1!
1*
b11010 0
14
b11100 ;
#290000000
0!
0*
04
#295000000
1!
1*
b11011 0
14
b11101 ;
#300000000
0!
0*
04
#305000000
1!
1*
b11100 0
14
b11110 ;
#310000000
0!
0*
04
#315000000
1!
1*
b11101 0
14
b11111 ;
#320000000
0!
0*
04
#325000000
1!
1*
b11110 0
14
b100000 ;
#330000000
0!
0*
04
#335000000
1!
1*
b11111 0
14
b100001 ;
#340000000
0!
0*
04
#345000000
1!
1*
b100000 0
14
b100010 ;
#350000000
0!
0*
04
#355000000
1!
1*
b100001 0
14
b100011 ;
#360000000
0!
0*
04
#365000000
1!
1*
b100010 0
14
b100100 ;
#370000000
0!
0*
04
#375000000
1!
1*
b100011 0
14
b100101 ;
#380000000
0!
0*
04
#385000000
1!
1*
b100100 0
14
b100110 ;
#390000000
0!
0*
04
#395000000
1!
1*
b100101 0
14
b100111 ;
#400000000
0!
0*
04
#405000000
1!
1*
b100110 0
14
b101000 ;
#410000000
0!
0*
04
#415000000
1!
1*
b100111 0
14
b101001 ;
#420000000
0!
0*
04
#425000000
1!
1*
b101000 0
14
b101010 ;
#430000000
0!
0*
04
#435000000
1!
1*
b101001 0
14
b101011 ;
#440000000
0!
0*
04
#445000000
1!
1*
b101010 0
14
b101100 ;
#450000000
0!
0*
04
#455000000
1!
1*
b101011 0
14
b101101 ;
#460000000
0!
0*
04
#465000000
1!
1*
b101100 0
14
b101110 ;
#470000000
0!
0*
04
#475000000
1!
1*
b101101 0
14
b101111 ;
#480000000
0!
0*
04
#485000000
1!
1*
b101110 0
14
b110000 ;
#490000000
0!
0*
04
#495000000
1!
1*
b101111 0
14
b110001 ;
#500000000
0!
0*
04
#505000000
1!
1*
b110000 0
14
b110010 ;
#510000000
0!
0*
04
#515000000
1!
1*
b110001 0
14
b110011 ;
#520000000
0!
0*
04
#525000000
1!
1*
b110010 0
14
b110100 ;
#530000000
0!
0*
04
#535000000
1!
1*
b110011 0
14
b110101 ;
#540000000
0!
0*
04
#545000000
1!
1*
b110100 0
14
b110110 ;
#550000000
0!
0*
04
#555000000
1!
1*
b110101 0
14
b110111 ;
#560000000
0!
0*
04
#565000000
1!
1*
b110110 0
14
b111000 ;
#570000000
0!
0*
04
#575000000
1!
1*
b110111 0
14
b111001 ;
#580000000
0!
0*
04
#585000000
1!
1*
b111000 0
14
b111010 ;
#590000000
0!
0*
04
#595000000
1!
1*
b111001 0
14
b111011 ;
#600000000
0!
0*
04
#605000000
1!
1*
b111010 0
14
b111100 ;
#610000000
0!
0*
04
#615000000
1!
1*
b111011 0
14
b111101 ;
#620000000
0!
0*
04
#625000000
1!
1*
b111100 0
14
b111110 ;
#630000000
0!
0*
04
#635000000
1!
1*
b111101 0
14
b111111 ;
#640000000
0!
0*
04
#645000000
1!
1*
b111110 0
14
b1000000 ;
#650000000
0!
0*
04
#655000000
1!
1*
b111111 0
14
b1000001 ;
#660000000
0!
0*
04
#665000000
1!
1*
b1000000 0
14
b1000010 ;
#670000000
0!
0*
04
#675000000
1!
1*
b1000001 0
14
b1000011 ;
#680000000
0!
0*
04
#685000000
1!
1*
b1000010 0
14
b1000100 ;
#690000000
0!
0*
04
#695000000
1!
1*
b1000011 0
14
b1000101 ;
#700000000
0!
0*
04
#705000000
1!
1*
b1000100 0
14
b1000110 ;
#710000000
0!
0*
04
#715000000
1!
1*
b1000101 0
14
b1000111 ;
#720000000
0!
0*
04
#725000000
1!
1*
b1000110 0
14
b1001000 ;
#730000000
0!
0*
04
#735000000
1!
1*
b1000111 0
14
b1001001 ;
#740000000
0!
0*
04
#745000000
1!
1*
b1001000 0
14
b1001010 ;
#750000000
0!
0*
04
#755000000
1!
1*
b1001001 0
14
b1001011 ;
#760000000
0!
0*
04
#765000000
1!
1*
b1001010 0
14
b1001100 ;
#770000000
0!
0*
04
#775000000
1!
1*
b1001011 0
14
b1001101 ;
#780000000
0!
0*
04
#785000000
1!
1*
b1001100 0
14
b1001110 ;
#790000000
0!
0*
04
#795000000
1!
1*
b1001101 0
14
b1001111 ;
#800000000
0!
0*
04
#805000000
1!
1*
b1001110 0
14
b1010000 ;
#810000000
0!
0*
04
#815000000
1!
1*
b1001111 0
14
b1010001 ;
#820000000
0!
0*
04
#825000000
1!
1*
b1010000 0
14
b1010010 ;
#830000000
0!
0*
04
#835000000
1!
1*
b1010001 0
14
b1010011 ;
#840000000
0!
0*
04
#845000000
1!
1*
b1010010 0
14
b1010100 ;
#850000000
0!
0*
04
#855000000
1!
1*
b1010011 0
14
b1010101 ;
#860000000
0!
0*
04
#865000000
1!
1*
b1010100 0
14
b1010110 ;
#870000000
0!
0*
04
#875000000
1!
1*
b1010101 0
14
b1010111 ;
#880000000
0!
0*
04
#885000000
1!
1*
b1010110 0
14
b1011000 ;
#890000000
0!
0*
04
#895000000
1!
1*
b1010111 0
14
b1011001 ;
#900000000
0!
0*
04
#905000000
1!
1*
b1011000 0
14
b1011010 ;
#910000000
0!
0*
04
#915000000
1!
1*
b1011001 0
14
b1011011 ;
#920000000
0!
0*
04
#925000000
1!
1*
b1011010 0
14
b1011100 ;
#930000000
0!
0*
04
#935000000
1!
1*
b1011011 0
14
b1011101 ;
#940000000
0!
0*
04
#945000000
1!
1*
b1011100 0
14
b1011110 ;
#950000000
0!
0*
04
#955000000
1!
1*
b1011101 0
14
b1011111 ;
#960000000
0!
0*
04
#965000000
1!
1*
b1011110 0
14
b1100000 ;
#970000000
0!
0*
04
#975000000
1!
1*
b1011111 0
14
b1100001 ;
#980000000
0!
0*
04
#985000000
1!
1*
b1100000 0
14
b1100010 ;
#990000000
0!
0*
04
#995000000
1!
1*
b1100001 0
14
b1100011 ;
#1000000000
0!
0*
04
#1005000000
1!
1*
b1100010 0
14
b1100100 ;
#1010000000
0!
0*
04
#1015000000
1!
1*
b1100011 0
14
b1100101 ;
#1020000000
0!
0*
04
#1025000000
1!
1*
b1100100 0
14
b1100110 ;
#1030000000
0!
0*
04
#1035000000
1!
1*
b1100101 0
14
b1100111 ;
#1040000000
0!
0*
04
#1045000000
1!
1*
b1100110 0
14
b1101000 ;
#1050000000
0!
0*
04
#1055000000
1!
1*
b1100111 0
14
b1101001 ;
#1060000000
0!
0*
04
#1065000000
1!
1*
b1101000 0
14
b1101010 ;
#1070000000
0!
0*
04
#1075000000
1!
1*
b1101001 0
14
b1101011 ;
#1080000000
0!
0*
04
#1085000000
1!
1*
b1101010 0
14
b1101100 ;
#1090000000
0!
0*
04
#1095000000
1!
1*
b1101011 0
14
b1101101 ;
#1100000000
0!
0*
04
#1105000000
1!
1*
b1101100 0
14
b1101110 ;
#1110000000
0!
0*
04
#1115000000
1!
1*
b1101101 0
14
b1101111 ;
#1120000000
0!
0*
04
#1125000000
1!
1*
b1101110 0
14
b1110000 ;
#1130000000
0!
0*
04
#1135000000
1!
1*
b1101111 0
14
b1110001 ;
#1140000000
0!
0*
04
#1145000000
1!
1*
b1110000 0
14
b1110010 ;
#1150000000
0!
0*
04
#1155000000
1!
1*
b1110001 0
14
b1110011 ;
#1160000000
0!
0*
04
#1165000000
1!
1*
b1110010 0
14
b1110100 ;
#1170000000
0!
0*
04
#1175000000
1!
1*
b1110011 0
14
b1110101 ;
#1180000000
0!
0*
04
#1185000000
1!
1*
b1110100 0
14
b1110110 ;
#1190000000
0!
0*
04
#1195000000
1!
1*
b1110101 0
14
b1110111 ;
#1200000000
0!
0*
04
#1205000000
1!
1*
b1110110 0
14
b1111000 ;
#1210000000
0!
0*
04
#1215000000
1!
1*
b1110111 0
14
b1111001 ;
#1220000000
0!
0*
04
#1225000000
1!
1*
b1111000 0
14
b1111010 ;
#1230000000
0!
0*
04
#1235000000
1!
1*
b1111001 0
14
b1111011 ;
#1240000000
0!
0*
04
#1245000000
1!
1*
b1111010 0
14
b1111100 ;
#1250000000
0!
0*
04
#1255000000
1!
1*
b1111011 0
14
b1111101 ;
#1260000000
0!
0*
04
#1265000000
1!
1*
b1111100 0
14
b1111110 ;
#1270000000
0!
0*
04
#1275000000
1!
1*
b1111101 0
14
b1111111 ;
#1280000000
0!
0*
04
#1285000000
1!
1*
b1111110 0
14
b10000000 ;
#1290000000
0!
0*
04
#1295000000
1!
1*
b1111111 0
14
b10000001 ;
#1300000000
0!
0*
04
#1305000000
1!
1*
b10000000 0
14
b10000010 ;
#1310000000
0!
0*
04
#1315000000
1!
1*
b10000001 0
14
b10000011 ;
#1320000000
0!
0*
04
#1325000000
1!
1*
b10000010 0
14
b10000100 ;
#1330000000
0!
0*
04
#1335000000
1!
1*
b10000011 0
14
b10000101 ;
#1340000000
0!
0*
04
#1345000000
1!
1*
b10000100 0
14
b10000110 ;
#1350000000
0!
0*
04
#1355000000
1!
1*
b10000101 0
14
b10000111 ;
#1360000000
0!
0*
04
#1365000000
1!
1*
b10000110 0
14
b10001000 ;
#1370000000
0!
0*
04
#1375000000
1!
1*
b10000111 0
14
b10001001 ;
#1380000000
0!
0*
04
#1385000000
1!
1*
b10001000 0
14
b10001010 ;
#1390000000
0!
0*
04
#1395000000
1!
1*
b10001001 0
14
b10001011 ;
#1400000000
0!
0*
04
#1405000000
1!
1*
b10001010 0
14
b10001100 ;
#1410000000
0!
0*
04
#1415000000
1!
1*
b10001011 0
14
b10001101 ;
#1420000000
0!
0*
04
#1425000000
1!
1*
b10001100 0
14
b10001110 ;
#1430000000
0!
0*
04
#1435000000
1!
1*
b10001101 0
14
b10001111 ;
#1440000000
0!
0*
04
#1445000000
1!
1*
b10001110 0
14
b10010000 ;
#1450000000
0!
0*
04
#1455000000
1!
1*
b10001111 0
14
b10010001 ;
#1460000000
0!
0*
04
#1465000000
1!
1*
b10010000 0
14
b10010010 ;
#1470000000
0!
0*
04
#1475000000
1!
1*
b10010001 0
14
b10010011 ;
#1480000000
0!
0*
04
#1485000000
1!
1*
b10010010 0
14
b10010100 ;
#1490000000
0!
0*
04
#1495000000
1!
1*
b10010011 0
14
b10010101 ;
#1500000000
0!
0*
04
#1505000000
1!
1*
b10010100 0
14
b10010110 ;
#1510000000
0!
0*
04
#1515000000
1!
1*
b10010101 0
14
b10010111 ;
#1520000000
0!
0*
04
#1525000000
1!
1*
b10010110 0
14
b10011000 ;
#1530000000
0!
0*
04
#1535000000
1!
1*
b10010111 0
14
b10011001 ;
#1540000000
0!
0*
04
#1545000000
1!
1*
b10011000 0
14
b10011010 ;
#1550000000
0!
0*
04
#1555000000
1!
1*
b10011001 0
14
b10011011 ;
#1560000000
0!
0*
04
#1565000000
1!
1*
b10011010 0
14
b10011100 ;
#1570000000
0!
0*
04
#1575000000
1!
1*
b10011011 0
14
b10011101 ;
#1580000000
0!
0*
04
#1585000000
1!
1*
b10011100 0
14
b10011110 ;
#1590000000
0!
0*
04
#1595000000
1!
1*
b10011101 0
14
b10011111 ;
#1600000000
0!
0*
04
#1605000000
1!
1*
b10011110 0
14
b10100000 ;
#1610000000
0!
0*
04
#1615000000
1!
1*
b10011111 0
14
b10100001 ;
#1620000000
0!
0*
04
#1625000000
1!
1*
b10100000 0
14
b10100010 ;
#1630000000
0!
0*
04
#1635000000
1!
1*
b10100001 0
14
b10100011 ;
#1640000000
0!
0*
04
#1645000000
1!
1*
b10100010 0
14
b10100100 ;
#1650000000
0!
0*
04
#1655000000
1!
1*
b10100011 0
14
b10100101 ;
#1660000000
0!
0*
04
#1665000000
1!
1*
b10100100 0
14
b10100110 ;
#1670000000
0!
0*
04
#1675000000
1!
1*
b10100101 0
14
b10100111 ;
#1680000000
0!
0*
04
#1685000000
1!
1*
b10100110 0
14
b10101000 ;
#1690000000
0!
0*
04
#1695000000
1!
1*
b10100111 0
14
b10101001 ;
#1700000000
0!
0*
04
#1705000000
1!
1*
b10101000 0
14
b10101010 ;
#1710000000
0!
0*
04
#1715000000
1!
1*
b10101001 0
14
b10101011 ;
#1720000000
0!
0*
04
#1725000000
1!
1*
b10101010 0
14
b10101100 ;
#1730000000
0!
0*
04
#1735000000
1!
1*
b10101011 0
14
b10101101 ;
#1740000000
0!
0*
04
#1745000000
1!
1*
b10101100 0
14
b10101110 ;
#1750000000
0!
0*
04
#1755000000
1!
1*
b10101101 0
14
b10101111 ;
#1760000000
0!
0*
04
#1765000000
1!
1*
b10101110 0
14
b10110000 ;
#1770000000
0!
0*
04
#1775000000
1!
1*
b10101111 0
14
b10110001 ;
#1780000000
0!
0*
04
#1785000000
1!
1*
b10110000 0
14
b10110010 ;
#1790000000
0!
0*
04
#1795000000
1!
1*
b10110001 0
14
b10110011 ;
#1800000000
0!
0*
04
#1805000000
1!
1*
b10110010 0
14
b10110100 ;
#1810000000
0!
0*
04
#1815000000
1!
1*
b10110011 0
14
b10110101 ;
#1820000000
0!
0*
04
#1825000000
1!
1*
b10110100 0
14
b10110110 ;
#1830000000
0!
0*
04
#1835000000
1!
1*
b10110101 0
14
b10110111 ;
#1840000000
0!
0*
04
#1845000000
1!
1*
b10110110 0
14
b10111000 ;
#1850000000
0!
0*
04
#1855000000
1!
1*
b10110111 0
14
b10111001 ;
#1860000000
0!
0*
04
#1865000000
1!
1*
b10111000 0
14
b10111010 ;
#1870000000
0!
0*
04
#1875000000
1!
1*
b10111001 0
14
b10111011 ;
#1880000000
0!
0*
04
#1885000000
1!
1*
b10111010 0
14
b10111100 ;
#1890000000
0!
0*
04
#1895000000
1!
1*
b10111011 0
14
b10111101 ;
#1900000000
0!
0*
04
#1905000000
1!
1*
b10111100 0
14
b10111110 ;
#1910000000
0!
0*
04
#1915000000
1!
1*
b10111101 0
14
b10111111 ;
#1920000000
0!
0*
04
#1925000000
1!
1*
b10111110 0
14
b11000000 ;
#1930000000
0!
0*
04
#1935000000
1!
1*
b10111111 0
14
b11000001 ;
#1940000000
0!
0*
04
#1945000000
1!
1*
b11000000 0
14
b11000010 ;
#1950000000
0!
0*
04
#1955000000
1!
1*
b11000001 0
14
b11000011 ;
#1960000000
0!
0*
04
#1965000000
1!
1*
b11000010 0
14
b11000100 ;
#1970000000
0!
0*
04
#1975000000
1!
1*
b11000011 0
14
b11000101 ;
#1980000000
0!
0*
04
#1985000000
1!
1*
b11000100 0
14
b11000110 ;
#1990000000
0!
0*
04
#1995000000
1!
1*
b11000101 0
14
b11000111 ;
#2000000000
0!
0*
04
#2005000000
1!
1*
b11000110 0
14
b11001000 ;
#2010000000
0!
0*
04
#2015000000
1!
1*
b11000111 0
14
b11001001 ;
#2020000000
0!
0*
04
#2025000000
1!
1*
b11001000 0
14
b11001010 ;
#2030000000
0!
0*
04
#2035000000
1!
1*
b11001001 0
14
b11001011 ;
#2040000000
0!
0*
04
#2045000000
1!
1*
b11001010 0
14
b11001100 ;
#2050000000
0!
0*
04
#2055000000
1!
1*
b11001011 0
14
b11001101 ;
#2060000000
0!
0*
04
#2065000000
1!
1*
b11001100 0
14
b11001110 ;
#2070000000
0!
0*
04
#2075000000
1!
1*
b11001101 0
14
b11001111 ;
#2080000000
0!
0*
04
#2085000000
1!
1*
b11001110 0
14
b11010000 ;
#2090000000
0!
0*
04
#2095000000
1!
1*
b11001111 0
14
b11010001 ;
#2100000000
0!
0*
04
#2105000000
1!
1*
b11010000 0
14
b11010010 ;
#2110000000
0!
0*
04
#2115000000
1!
1*
b11010001 0
14
b11010011 ;
#2120000000
0!
0*
04
#2125000000
1!
1*
b11010010 0
14
b11010100 ;
#2130000000
0!
0*
04
#2135000000
1!
1*
b11010011 0
14
b11010101 ;
#2140000000
0!
0*
04
#2145000000
1!
1*
b11010100 0
14
b11010110 ;
#2150000000
0!
0*
04
#2155000000
1!
1*
b11010101 0
14
b11010111 ;
#2160000000
0!
0*
04
#2165000000
1!
1*
b11010110 0
14
b11011000 ;
#2170000000
0!
0*
04
#2175000000
1!
1*
b11010111 0
14
b11011001 ;
#2180000000
0!
0*
04
#2185000000
1!
1*
b11011000 0
14
b11011010 ;
#2190000000
0!
0*
04
#2195000000
1!
1*
b11011001 0
14
b11011011 ;
#2200000000
0!
0*
04
#2205000000
1!
1*
b11011010 0
14
b11011100 ;
#2210000000
0!
0*
04
#2215000000
1!
1*
b11011011 0
14
b11011101 ;
#2220000000
0!
0*
04
#2225000000
1!
1*
b11011100 0
14
b11011110 ;
#2230000000
0!
0*
04
#2235000000
1!
1*
b11011101 0
14
b11011111 ;
#2240000000
0!
0*
04
#2245000000
1!
1*
b11011110 0
14
b11100000 ;
#2250000000
0!
0*
04
#2255000000
1!
1*
b11011111 0
14
b11100001 ;
#2260000000
0!
0*
04
#2265000000
1!
1*
b11100000 0
14
b11100010 ;
#2270000000
0!
0*
04
#2275000000
1!
1*
b11100001 0
14
b11100011 ;
#2280000000
0!
0*
04
#2285000000
1!
1*
b11100010 0
14
b11100100 ;
#2290000000
0!
0*
04
#2295000000
1!
1*
b11100011 0
14
b11100101 ;
#2300000000
0!
0*
04
#2305000000
1!
1*
b11100100 0
14
b11100110 ;
#2310000000
0!
0*
04
#2315000000
1!
1*
b11100101 0
14
b11100111 ;
#2320000000
0!
0*
04
#2325000000
1!
1*
b11100110 0
14
b11101000 ;
#2330000000
0!
0*
04
#2335000000
1!
1*
b11100111 0
14
b11101001 ;
#2340000000
0!
0*
04
#2345000000
1!
1*
b11101000 0
14
b11101010 ;
#2350000000
0!
0*
04
#2355000000
1!
1*
b11101001 0
14
b11101011 ;
#2360000000
0!
0*
04
#2365000000
1!
1*
b11101010 0
14
b11101100 ;
#2370000000
0!
0*
04
#2375000000
1!
1*
b11101011 0
14
b11101101 ;
#2380000000
0!
0*
04
#2385000000
1!
1*
b11101100 0
14
b11101110 ;
#2390000000
0!
0*
04
#2395000000
1!
1*
b11101101 0
14
b11101111 ;
#2400000000
0!
0*
04
#2405000000
1!
1*
b11101110 0
14
b11110000 ;
#2410000000
0!
0*
04
#2415000000
1!
1*
b11101111 0
14
b11110001 ;
#2420000000
0!
0*
04
#2425000000
1!
1*
b11110000 0
14
b11110010 ;
#2430000000
0!
0*
04
#2435000000
1!
1*
b11110001 0
14
b11110011 ;
#2440000000
0!
0*
04
#2445000000
1!
1*
b11110010 0
14
b11110100 ;
#2450000000
0!
0*
04
#2455000000
1!
1*
b11110011 0
14
b11110101 ;
#2460000000
0!
0*
04
#2465000000
1!
1*
b11110100 0
14
b11110110 ;
#2470000000
0!
0*
04
#2475000000
1!
1*
b11110101 0
14
b11110111 ;
#2480000000
0!
0*
04
#2485000000
1!
1*
b11110110 0
14
b11111000 ;
#2490000000
0!
0*
04
#2495000000
1!
1*
b11110111 0
14
b11111001 ;
#2500000000
0!
0*
04
#2505000000
1!
1*
b11111000 0
14
b11111010 ;
#2510000000
0!
0*
04
#2515000000
1!
1*
b11111001 0
14
b11111011 ;
#2520000000
0!
0*
04
#2525000000
1!
1*
b11111010 0
14
b11111100 ;
#2530000000
0!
0*
04
#2535000000
1!
1*
b11111011 0
14
b11111101 ;
#2540000000
0!
0*
04
#2545000000
1!
1*
b11111100 0
14
b11111110 ;
#2550000000
0!
0*
04
#2555000000
1!
1*
b11111101 0
14
b11111111 ;
#2560000000
0!
0*
04
#2565000000
1!
1*
b11111110 0
14
b100000000 ;
#2570000000
0!
0*
04
#2575000000
1!
1*
b11111111 0
14
b100000001 ;
#2580000000
0!
0*
04
#2585000000
1!
1*
b100000000 0
14
b100000010 ;
#2590000000
0!
0*
04
#2595000000
1!
1*
b100000001 0
14
b100000011 ;
#2600000000
0!
0*
04
#2605000000
1!
1*
b100000010 0
14
b100000100 ;
#2610000000
0!
0*
04
#2615000000
1!
1*
b100000011 0
14
b100000101 ;
#2620000000
0!
0*
04
#2625000000
1!
1*
b100000100 0
14
b100000110 ;
#2630000000
0!
0*
04
#2635000000
1!
1*
b100000101 0
14
b100000111 ;
#2640000000
0!
0*
04
#2645000000
1!
1*
b100000110 0
14
b100001000 ;
#2650000000
0!
0*
04
#2655000000
1!
1*
b100000111 0
14
b100001001 ;
#2660000000
0!
0*
04
#2665000000
1!
1*
b100001000 0
14
b100001010 ;
#2670000000
0!
0*
04
#2675000000
1!
1*
b100001001 0
14
b100001011 ;
#2680000000
0!
0*
04
#2685000000
1!
1*
b100001010 0
14
b100001100 ;
#2690000000
0!
0*
04
#2695000000
1!
1*
b100001011 0
14
b100001101 ;
#2700000000
0!
0*
04
#2705000000
1!
1*
b100001100 0
14
b100001110 ;
#2710000000
0!
0*
04
#2715000000
1!
1*
b100001101 0
14
b100001111 ;
#2720000000
0!
0*
04
#2725000000
1!
1*
b100001110 0
14
b100010000 ;
#2730000000
0!
0*
04
#2735000000
1!
1*
b100001111 0
14
b100010001 ;
#2740000000
0!
0*
04
#2745000000
1!
1*
b100010000 0
14
b100010010 ;
#2750000000
0!
0*
04
#2755000000
1!
1*
b100010001 0
14
b100010011 ;
#2760000000
0!
0*
04
#2765000000
1!
1*
b100010010 0
14
b100010100 ;
#2770000000
0!
0*
04
#2775000000
1!
1*
b100010011 0
14
b100010101 ;
#2780000000
0!
0*
04
#2785000000
1!
1*
b100010100 0
14
b100010110 ;
#2790000000
0!
0*
04
#2795000000
1!
1*
b100010101 0
14
b100010111 ;
#2800000000
0!
0*
04
#2805000000
1!
1*
b100010110 0
14
b100011000 ;
#2810000000
0!
0*
04
#2815000000
1!
1*
b100010111 0
14
b100011001 ;
#2820000000
0!
0*
04
#2825000000
1!
1*
b100011000 0
14
b100011010 ;
#2830000000
0!
0*
04
#2835000000
1!
1*
b100011001 0
14
b100011011 ;
#2840000000
0!
0*
04
#2845000000
1!
1*
b100011010 0
14
b100011100 ;
#2850000000
0!
0*
04
#2855000000
1!
1*
b100011011 0
14
b100011101 ;
#2860000000
0!
0*
04
#2865000000
1!
1*
b100011100 0
14
b100011110 ;
#2870000000
0!
0*
04
#2875000000
1!
1*
b100011101 0
14
b100011111 ;
#2880000000
0!
0*
04
#2885000000
1!
1*
b100011110 0
14
b100100000 ;
#2890000000
0!
0*
04
#2895000000
1!
1*
b100011111 0
14
b100100001 ;
#2900000000
0!
0*
04
#2905000000
1!
1*
b100100000 0
14
b100100010 ;
#2910000000
0!
0*
04
#2915000000
1!
1*
b100100001 0
14
b100100011 ;
#2920000000
0!
0*
04
#2925000000
1!
1*
b100100010 0
14
b100100100 ;
#2930000000
0!
0*
04
#2935000000
1!
1*
b100100011 0
14
b100100101 ;
#2940000000
0!
0*
04
#2945000000
1!
1*
b100100100 0
14
b100100110 ;
#2950000000
0!
0*
04
#2955000000
1!
1*
b100100101 0
14
b100100111 ;
#2960000000
0!
0*
04
#2965000000
1!
1*
b100100110 0
14
b100101000 ;
#2970000000
0!
0*
04
#2975000000
1!
1*
b100100111 0
14
b100101001 ;
#2980000000
0!
0*
04
#2985000000
1!
1*
b100101000 0
14
b100101010 ;
#2990000000
0!
0*
04
#2995000000
1!
1*
b100101001 0
14
b100101011 ;
#3000000000
0!
0*
04
#3005000000
1!
1*
b100101010 0
14
b100101100 ;
#3010000000
0!
0*
04
#3015000000
1!
1*
b100101011 0
14
b100101101 ;
#3020000000
0!
0*
04
#3025000000
1!
1*
b100101100 0
14
b100101110 ;
#3030000000
0!
0*
04
#3035000000
1!
1*
b100101101 0
14
b100101111 ;
#3040000000
0!
0*
04
#3045000000
1!
1*
b100101110 0
14
b100110000 ;
#3050000000
0!
0*
04
#3055000000
1!
1*
b100101111 0
14
b100110001 ;
#3060000000
0!
0*
04
#3065000000
1!
1*
b100110000 0
14
b100110010 ;
#3070000000
0!
0*
04
#3075000000
1!
1*
b100110001 0
14
b100110011 ;
#3080000000
0!
0*
04
#3085000000
1!
1*
b100110010 0
14
b100110100 ;
#3090000000
0!
0*
04
#3095000000
1!
1*
b100110011 0
14
b100110101 ;
#3100000000
0!
0*
04
#3105000000
1!
1*
b100110100 0
14
b100110110 ;
#3110000000
0!
0*
04
#3115000000
1!
1*
b100110101 0
14
b100110111 ;
#3120000000
0!
0*
04
#3125000000
1!
1*
b100110110 0
14
b100111000 ;
#3130000000
0!
0*
04
#3135000000
1!
1*
b100110111 0
14
b100111001 ;
#3140000000
0!
0*
04
#3145000000
1!
1*
b100111000 0
14
b100111010 ;
#3150000000
0!
0*
04
#3155000000
1!
1*
b100111001 0
14
b100111011 ;
#3160000000
0!
0*
04
#3165000000
1!
1*
b100111010 0
14
b100111100 ;
#3170000000
0!
0*
04
#3175000000
1!
1*
b100111011 0
14
b100111101 ;
#3180000000
0!
0*
04
#3185000000
1!
1*
b100111100 0
14
b100111110 ;
#3190000000
0!
0*
04
#3195000000
1!
1*
b100111101 0
14
b100111111 ;
#3200000000
0!
0*
04
#3205000000
1!
1*
b100111110 0
14
b101000000 ;
#3210000000
0!
0*
04
#3215000000
1!
1*
b100111111 0
14
b101000001 ;
#3220000000
0!
0*
04
#3225000000
1!
1*
b101000000 0
14
b101000010 ;
#3230000000
0!
0*
04
#3235000000
1!
1*
b101000001 0
14
b101000011 ;
#3240000000
0!
0*
04
#3245000000
1!
1*
b101000010 0
14
b101000100 ;
#3250000000
0!
0*
04
#3255000000
1!
1*
b101000011 0
14
b101000101 ;
#3260000000
0!
0*
04
#3265000000
1!
1*
b101000100 0
14
b101000110 ;
#3270000000
0!
0*
04
#3275000000
1!
1*
b101000101 0
14
b101000111 ;
#3280000000
0!
0*
04
#3285000000
1!
1*
b101000110 0
14
b101001000 ;
#3290000000
0!
0*
04
#3295000000
1!
1*
b101000111 0
14
b101001001 ;
#3300000000
0!
0*
04
#3305000000
1!
1*
b101001000 0
14
b101001010 ;
#3310000000
0!
0*
04
#3315000000
1!
1*
b101001001 0
14
b101001011 ;
#3320000000
0!
0*
04
#3325000000
1!
1*
b101001010 0
14
b101001100 ;
#3330000000
0!
0*
04
#3335000000
1!
1*
b101001011 0
14
b101001101 ;
#3340000000
0!
0*
04
#3345000000
1!
1*
b101001100 0
14
b101001110 ;
#3350000000
0!
0*
04
#3355000000
1!
1*
b101001101 0
14
b101001111 ;
#3360000000
0!
0*
04
